start_time,end_time,train no
230,260,74644
285,315,12241
325,355,12483
370,400,74676
420,450,74658
455,485,54611
535,565,13005
600,630,54601
645,675,19613
705,735,14633
765,795,15707
830,860,18102
880,910,12497
980,1010,12029
1020,1050,12411
1060,1090,13049
1110,1140,22429.1
1185,1215,12379
1220,1250,12715
1255,1285,19226.1
1370,1400,12483
1410,1440,18507
