start_time,end_time,train no
285,315,54611
330,360,12903
390,420,22423
450,480,54613
490,520,18237
545,575,74662
620,650,18102
705,735,74664
775,805,64551
850,880,18101
940,970,18237
990,1020,11057
1070,1100,74662
1115,1145,15211
1200,1230,74664
1265,1295,12203
