in_train,out_train,in_time,out_time,pf,type,length,rake_type
74923,74691,515,790,"1A,1",DMU,17,ICF
74692,74663,1090,1100,2,DMU,17,ICF
74664,74675,1200,1225,3,DMU,17,ICF
74672,74661,440,450,3,DMU,17,ICF
74658,74651,1265,1700,2,DMU,17,ICF
74687,74682,1345,1700,2,DMU,17,ICF
74681,74671,535,735,1,DMU,17,ICF
74643,74642,1140,1160,3,DMU,17,ICF
1707.2,1707.1,645,655,3,STR,16,ICF
1708.2,1708.1,940,950,"3,4",STR,16,ICF
11057,11058,990,1950,4,S,18,ICF
12013,12014,1350,1740,1,STR,17,LHB
12029,12030,825,1010,1,STR,20,LHB
12053,12054,1325,1850,"1,1A",P,8,ICF
12203,12204,1265,1690,"2,4",P,21,ICF
12241,12242,1285,1755,2,STR,11,LHB
12379,12380,1185,2095,1,S,20,LHB
12411,12412,690,1050,1,STR,14,LHB
12483,12484,1370,1795,2,P,21,ICF
12497,12498,860,910,2,STR,22,LHB
12715,12716,1220,1775,"2,5",S,23,LHB
12903,12904,330,1285,1,S,23,ICF
12925,12926,1160,1930,1,S,19,ICF
13005,13006,535,1120,1,S,23,ICF
13049,13050,620,1090,5,S,18,ICF
14631,14632,450,1330,1,P,17,ICF
14634,14633,1000,1995,1A,P,9,ICF
15209,15210,1020,1835,2,STR,23,ICF
15211,15212,110,1145,4,STR,23,ICF
15707,15708,765,1870,3,S,21,ICF
18101.1,18101,470,500,3,STR,17,ICF
18102,18102.1,1150,1175,1,STR,17,ICF
18237,18238,490,970,2,S,24,ICF
19225.2,19225.1,55,80,2,STR,21,ICF
19226.2,19226.1,125,150,"2,3",STR,21,ICF
19613,19614,645,1070,3,STR,18,ICF
22429.2,22429.1,935,960,3,STR,17,ICF
22430.2,22430.1,545,570,1,STR,17,ICF
54601,54611,600,1720,1A,P,17,ICF
54614,54602,660,990,5,STR,11,ICF
64551,64552,730,805,4,DMU,17,ICF
